{
    "dev": {
        "awscloudformation": {
            "AuthRoleName": "aws-simple-todo-dev-20190818180600-authRole",
            "UnauthRoleArn": "arn:aws:iam::898509486124:role/aws-simple-todo-dev-20190818180600-unauthRole",
            "AuthRoleArn": "arn:aws:iam::898509486124:role/aws-simple-todo-dev-20190818180600-authRole",
            "Region": "us-east-1",
            "DeploymentBucketName": "aws-simple-todo-dev-20190818180600-deployment",
            "UnauthRoleName": "aws-simple-todo-dev-20190818180600-unauthRole",
            "StackName": "aws-simple-todo-dev-20190818180600",
            "StackId": "arn:aws:cloudformation:us-east-1:898509486124:stack/aws-simple-todo-dev-20190818180600/5cd39a60-c204-11e9-b829-1262c1c6cf8e"
        }
    }
}